{
  "delete": {
    "dependencies": [
      "normalize.css"
    ],
    "vendorScss": [
      "@import '../../node_modules/normalize.css/normalize.css';"
    ]
  },
  "add": {
    "dependencies": {
      "bootstrap": "^4.0.0"
    },
    "vendorJs": [
      "./node_modules/bootstrap/dist/js/bootstrap.min.js"
    ],
    "vendorScss": [
      "@import '../scss/abstracts/bootstrap-variables.scss';",
      "@import '../../node_modules/bootstrap/scss/bootstrap.scss';"
    ]
  }
}
