<?xml version="1.0" encoding="utf-8"?>
<!-- Generator: Adobe Illustrator 22.0.0, SVG Export Plug-In . SVG Version: 6.00 Build 0)  -->
<svg version="1.1" id="Capa_1" xmlns="http://www.w3.org/2000/svg" xmlns:xlink="http://www.w3.org/1999/xlink" x="0px" y="0px"
	 viewBox="0 0 36 36" style="enable-background:new 0 0 36 36;" xml:space="preserve">
<style type="text/css">
	.st0{fill:none;stroke:#FFFFFF;stroke-miterlimit:10;}
	.st1{fill:#F0F0F0;}
	.st2{fill:#D80027;}
	.st3{fill:#0052B4;}
	.st4{fill:#6DA544;}
	.st5{fill:#D70026;}
	.st6{fill:#FFD944;}
</style>
<g>
	<rect class="st1" width="36" height="36"/>
	<rect y="31.5" class="st2" width="36" height="4.5"/>
	<g>
		<path class="st2" d="M14.9,18H36c0,0,0-4.4,0-4.5H14.9V18z"/>
		<path class="st2" d="M14.9,9H36c0,0,0-4.5,0-4.5H14.9V9z"/>
	</g>
	<rect y="22.5" class="st2" width="36" height="4.5"/>
	<rect class="st3" width="18" height="18"/>
	<g>
		<polygon class="st1" points="13,14.7 12.4,16.4 13.9,15.4 15.4,16.4 14.8,14.7 16.3,13.6 14.5,13.6 13.9,11.9 13.4,13.6 
			11.5,13.6 		"/>
		<polygon class="st1" points="6.8,14.7 6.2,16.4 7.7,15.4 9.2,16.4 8.6,14.7 10.1,13.6 8.3,13.6 7.7,11.9 7.1,13.6 5.3,13.6 		"/>
		<polygon class="st1" points="14.5,8.6 13.9,6.8 13.4,8.6 11.5,8.6 13,9.6 12.4,11.4 13.9,10.3 15.4,11.4 14.8,9.6 16.3,8.6 		"/>
		<polygon class="st1" points="13.9,1.8 13.4,3.5 11.5,3.5 13,4.6 12.4,6.3 13.9,5.2 15.4,6.3 14.8,4.6 16.3,3.5 14.5,3.5 		"/>
		<polygon class="st1" points="0,16.4 1.4,15.4 2.9,16.4 2.4,14.7 3.8,13.6 2,13.6 1.4,11.9 0.9,13.6 0,13.6 0,14.3 0.5,14.7 
			0,16.3 		"/>
		<polygon class="st1" points="2,3.5 1.4,1.8 0.9,3.5 0,3.5 0,4.2 0.5,4.6 0,6.2 0,6.3 1.4,5.2 2.9,6.3 2.4,4.6 3.8,3.5 		"/>
		<polygon class="st1" points="6.8,9.6 6.2,11.4 7.7,10.3 9.2,11.4 8.6,9.6 10.1,8.6 8.3,8.6 7.7,6.8 7.1,8.6 5.3,8.6 		"/>
		<polygon class="st1" points="0.5,9.7 0,11.3 0,11.4 1.4,10.3 2.9,11.4 2.4,9.7 3.8,8.6 2,8.6 1.4,6.9 0.9,8.6 0,8.6 0,9.3 		"/>
		<polygon class="st1" points="8.3,3.5 7.7,1.8 7.1,3.5 5.3,3.5 6.8,4.6 6.2,6.3 7.7,5.2 9.2,6.3 8.6,4.6 10.1,3.5 		"/>
	</g>
</g>
</svg>
